<svg xmlns="http://www.w3.org/2000/svg" viewBox="0 -64 1152 1152">
  <path d="
  M53.613 876.521h119.651l170.436-616.346c4.869-18.087 21.565-30.609 40.347-30.609h523.825c16.696 0 31.305 9.74 38.26 25.043l190.608 438.26c5.566 13.216 4.174 27.825-3.48 39.652s-20.869 18.783-34.783 18.783h-578.779c-22.956 0-41.739-18.783-41.739-41.739s18.783-41.739 41.739-41.739h514.782l-154.434-354.782h-464.696l-170.432 616.346c-4.869 18.087-21.565 30.609-40.347 30.609h-150.958c-22.956 0-41.739-18.783-41.739-41.739s18.783-41.739 41.739-41.739zM344.395-64c52.174 0 94.608 42.434 94.608 94.608s-42.434 94.608-94.608 94.608-94.608-42.432-94.608-94.605 42.434-94.61 94.608-94.61zM935.7-64c2.087 0 4.869 0 6.956 0 25.043 2.087 48 13.216 64.696 32.696 16.696 18.783 24.349 43.131 22.956 68.87-3.48 51.479-48.694 91.131-100.868 87.652s-91.131-49.392-87.652-100.868c3.476-49.392 44.521-88.35 93.913-88.35z
  "/>
</svg>
